{
    "page": 1,
    "per_page": 15,
    "photos": [
        {
            "id": 5750213,
            "width": 3921,
            "height": 5881,
            "url": "https://www.pexels.com/photo/unrecognizable-person-with-bright-flowers-5750213/",
            "photographer": "Anna Shvets",
            "photographer_url": "https://www.pexels.com/@shvetsa",
            "photographer_id": 1984515,
            "avg_color": "#C55532",
            "src": {
                "original": "https://images.pexels.com/photos/5750213/pexels-photo-5750213.jpeg",
                "large2x": "https://images.pexels.com/photos/5750213/pexels-photo-5750213.jpeg?auto=compress&cs=tinysrgb&dpr=2&h=650&w=940",
                "large": "https://images.pexels.com/photos/5750213/pexels-photo-5750213.jpeg?auto=compress&cs=tinysrgb&h=650&w=940",
                "medium": "https://images.pexels.com/photos/5750213/pexels-photo-5750213.jpeg?auto=compress&cs=tinysrgb&h=350",
                "small": "https://images.pexels.com/photos/5750213/pexels-photo-5750213.jpeg?auto=compress&cs=tinysrgb&h=130",
                "portrait": "https://images.pexels.com/photos/5750213/pexels-photo-5750213.jpeg?auto=compress&cs=tinysrgb&fit=crop&h=1200&w=800",
                "landscape": "https://images.pexels.com/photos/5750213/pexels-photo-5750213.jpeg?auto=compress&cs=tinysrgb&fit=crop&h=627&w=1200",
                "tiny": "https://images.pexels.com/photos/5750213/pexels-photo-5750213.jpeg?auto=compress&cs=tinysrgb&dpr=1&fit=crop&h=200&w=280"
            },
            "liked": false
        },
        {
            "id": 704815,
            "width": 4000,
            "height": 6000,
            "url": "https://www.pexels.com/photo/green-manicure-art-close-up-photo-704815/",
            "photographer": "Kristina Paukshtite",
            "photographer_url": "https://www.pexels.com/@kpaukshtite",
            "photographer_id": 28319,
            "avg_color": "#A1836C",
            "src": {
                "original": "https://images.pexels.com/photos/704815/pexels-photo-704815.jpeg",
                "large2x": "https://images.pexels.com/photos/704815/pexels-photo-704815.jpeg?auto=compress&cs=tinysrgb&dpr=2&h=650&w=940",
                "large": "https://images.pexels.com/photos/704815/pexels-photo-704815.jpeg?auto=compress&cs=tinysrgb&h=650&w=940",
                "medium": "https://images.pexels.com/photos/704815/pexels-photo-704815.jpeg?auto=compress&cs=tinysrgb&h=350",
                "small": "https://images.pexels.com/photos/704815/pexels-photo-704815.jpeg?auto=compress&cs=tinysrgb&h=130",
                "portrait": "https://images.pexels.com/photos/704815/pexels-photo-704815.jpeg?auto=compress&cs=tinysrgb&fit=crop&h=1200&w=800",
                "landscape": "https://images.pexels.com/photos/704815/pexels-photo-704815.jpeg?auto=compress&cs=tinysrgb&fit=crop&h=627&w=1200",
                "tiny": "https://images.pexels.com/photos/704815/pexels-photo-704815.jpeg?auto=compress&cs=tinysrgb&dpr=1&fit=crop&h=200&w=280"
            },
            "liked": false
        },
        {
            "id": 2055236,
            "width": 3306,
            "height": 4959,
            "url": "https://www.pexels.com/photo/man-and-woman-kissing-holding-dog-with-leash-2055236/",
            "photographer": "Helena Lopes",
            "photographer_url": "https://www.pexels.com/@wildlittlethingsphoto",
            "photographer_id": 210984,
            "avg_color": "#252C26",
            "src": {
                "original": "https://images.pexels.com/photos/2055236/pexels-photo-2055236.jpeg",
                "large2x": "https://images.pexels.com/photos/2055236/pexels-photo-2055236.jpeg?auto=compress&cs=tinysrgb&dpr=2&h=650&w=940",
                "large": "https://images.pexels.com/photos/2055236/pexels-photo-2055236.jpeg?auto=compress&cs=tinysrgb&h=650&w=940",
                "medium": "https://images.pexels.com/photos/2055236/pexels-photo-2055236.jpeg?auto=compress&cs=tinysrgb&h=350",
                "small": "https://images.pexels.com/photos/2055236/pexels-photo-2055236.jpeg?auto=compress&cs=tinysrgb&h=130",
                "portrait": "https://images.pexels.com/photos/2055236/pexels-photo-2055236.jpeg?auto=compress&cs=tinysrgb&fit=crop&h=1200&w=800",
                "landscape": "https://images.pexels.com/photos/2055236/pexels-photo-2055236.jpeg?auto=compress&cs=tinysrgb&fit=crop&h=627&w=1200",
                "tiny": "https://images.pexels.com/photos/2055236/pexels-photo-2055236.jpeg?auto=compress&cs=tinysrgb&dpr=1&fit=crop&h=200&w=280"
            },
            "liked": false
        },
        {
            "id": 983497,
            "width": 4240,
            "height": 2832,
            "url": "https://www.pexels.com/photo/man-in-black-leather-full-zip-jacket-983497/",
            "photographer": "Royal Anwar",
            "photographer_url": "https://www.pexels.com/@royalanwar",
            "photographer_id": 149782,
            "avg_color": "#3B3735",
            "src": {
                "original": "https://images.pexels.com/photos/983497/pexels-photo-983497.jpeg",
                "large2x": "https://images.pexels.com/photos/983497/pexels-photo-983497.jpeg?auto=compress&cs=tinysrgb&dpr=2&h=650&w=940",
                "large": "https://images.pexels.com/photos/983497/pexels-photo-983497.jpeg?auto=compress&cs=tinysrgb&h=650&w=940",
                "medium": "https://images.pexels.com/photos/983497/pexels-photo-983497.jpeg?auto=compress&cs=tinysrgb&h=350",
                "small": "https://images.pexels.com/photos/983497/pexels-photo-983497.jpeg?auto=compress&cs=tinysrgb&h=130",
                "portrait": "https://images.pexels.com/photos/983497/pexels-photo-983497.jpeg?auto=compress&cs=tinysrgb&fit=crop&h=1200&w=800",
                "landscape": "https://images.pexels.com/photos/983497/pexels-photo-983497.jpeg?auto=compress&cs=tinysrgb&fit=crop&h=627&w=1200",
                "tiny": "https://images.pexels.com/photos/983497/pexels-photo-983497.jpeg?auto=compress&cs=tinysrgb&dpr=1&fit=crop&h=200&w=280"
            },
            "liked": false
        },
        {
            "id": 5750174,
            "width": 4071,
            "height": 6106,
            "url": "https://www.pexels.com/photo/crop-person-with-bouquet-of-flowers-5750174/",
            "photographer": "Anna Shvets",
            "photographer_url": "https://www.pexels.com/@shvetsa",
            "photographer_id": 1984515,
            "avg_color": "#D37E55",
            "src": {
                "original": "https://images.pexels.com/photos/5750174/pexels-photo-5750174.jpeg",
                "large2x": "https://images.pexels.com/photos/5750174/pexels-photo-5750174.jpeg?auto=compress&cs=tinysrgb&dpr=2&h=650&w=940",
                "large": "https://images.pexels.com/photos/5750174/pexels-photo-5750174.jpeg?auto=compress&cs=tinysrgb&h=650&w=940",
                "medium": "https://images.pexels.com/photos/5750174/pexels-photo-5750174.jpeg?auto=compress&cs=tinysrgb&h=350",
                "small": "https://images.pexels.com/photos/5750174/pexels-photo-5750174.jpeg?auto=compress&cs=tinysrgb&h=130",
                "portrait": "https://images.pexels.com/photos/5750174/pexels-photo-5750174.jpeg?auto=compress&cs=tinysrgb&fit=crop&h=1200&w=800",
                "landscape": "https://images.pexels.com/photos/5750174/pexels-photo-5750174.jpeg?auto=compress&cs=tinysrgb&fit=crop&h=627&w=1200",
                "tiny": "https://images.pexels.com/photos/5750174/pexels-photo-5750174.jpeg?auto=compress&cs=tinysrgb&dpr=1&fit=crop&h=200&w=280"
            },
            "liked": false
        },
        {
            "id": 1098365,
            "width": 3651,
            "height": 5476,
            "url": "https://www.pexels.com/photo/man-wearing-blue-shorts-about-to-dive-on-body-of-water-1098365/",
            "photographer": "Oliver Sjöström",
            "photographer_url": "https://www.pexels.com/@ollivves",
            "photographer_id": 333270,
            "avg_color": "#9BB0B3",
            "src": {
                "original": "https://images.pexels.com/photos/1098365/pexels-photo-1098365.jpeg",
                "large2x": "https://images.pexels.com/photos/1098365/pexels-photo-1098365.jpeg?auto=compress&cs=tinysrgb&dpr=2&h=650&w=940",
                "large": "https://images.pexels.com/photos/1098365/pexels-photo-1098365.jpeg?auto=compress&cs=tinysrgb&h=650&w=940",
                "medium": "https://images.pexels.com/photos/1098365/pexels-photo-1098365.jpeg?auto=compress&cs=tinysrgb&h=350",
                "small": "https://images.pexels.com/photos/1098365/pexels-photo-1098365.jpeg?auto=compress&cs=tinysrgb&h=130",
                "portrait": "https://images.pexels.com/photos/1098365/pexels-photo-1098365.jpeg?auto=compress&cs=tinysrgb&fit=crop&h=1200&w=800",
                "landscape": "https://images.pexels.com/photos/1098365/pexels-photo-1098365.jpeg?auto=compress&cs=tinysrgb&fit=crop&h=627&w=1200",
                "tiny": "https://images.pexels.com/photos/1098365/pexels-photo-1098365.jpeg?auto=compress&cs=tinysrgb&dpr=1&fit=crop&h=200&w=280"
            },
            "liked": false
        },
        {
            "id": 1056497,
            "width": 3970,
            "height": 5955,
            "url": "https://www.pexels.com/photo/people-running-near-seashore-at-daytime-photo-1056497/",
            "photographer": "Oliver Sjöström",
            "photographer_url": "https://www.pexels.com/@ollivves",
            "photographer_id": 333270,
            "avg_color": "#CBC3B8",
            "src": {
                "original": "https://images.pexels.com/photos/1056497/pexels-photo-1056497.jpeg",
                "large2x": "https://images.pexels.com/photos/1056497/pexels-photo-1056497.jpeg?auto=compress&cs=tinysrgb&dpr=2&h=650&w=940",
                "large": "https://images.pexels.com/photos/1056497/pexels-photo-1056497.jpeg?auto=compress&cs=tinysrgb&h=650&w=940",
                "medium": "https://images.pexels.com/photos/1056497/pexels-photo-1056497.jpeg?auto=compress&cs=tinysrgb&h=350",
                "small": "https://images.pexels.com/photos/1056497/pexels-photo-1056497.jpeg?auto=compress&cs=tinysrgb&h=130",
                "portrait": "https://images.pexels.com/photos/1056497/pexels-photo-1056497.jpeg?auto=compress&cs=tinysrgb&fit=crop&h=1200&w=800",
                "landscape": "https://images.pexels.com/photos/1056497/pexels-photo-1056497.jpeg?auto=compress&cs=tinysrgb&fit=crop&h=627&w=1200",
                "tiny": "https://images.pexels.com/photos/1056497/pexels-photo-1056497.jpeg?auto=compress&cs=tinysrgb&dpr=1&fit=crop&h=200&w=280"
            },
            "liked": false
        },
        {
            "id": 3225531,
            "width": 3000,
            "height": 4000,
            "url": "https://www.pexels.com/photo/woman-soaking-on-the-swimming-pool-3225531/",
            "photographer": "Michael Block",
            "photographer_url": "https://www.pexels.com/@michael-block-1691617",
            "photographer_id": 1691617,
            "avg_color": "#52584E",
            "src": {
                "original": "https://images.pexels.com/photos/3225531/pexels-photo-3225531.jpeg",
                "large2x": "https://images.pexels.com/photos/3225531/pexels-photo-3225531.jpeg?auto=compress&cs=tinysrgb&dpr=2&h=650&w=940",
                "large": "https://images.pexels.com/photos/3225531/pexels-photo-3225531.jpeg?auto=compress&cs=tinysrgb&h=650&w=940",
                "medium": "https://images.pexels.com/photos/3225531/pexels-photo-3225531.jpeg?auto=compress&cs=tinysrgb&h=350",
                "small": "https://images.pexels.com/photos/3225531/pexels-photo-3225531.jpeg?auto=compress&cs=tinysrgb&h=130",
                "portrait": "https://images.pexels.com/photos/3225531/pexels-photo-3225531.jpeg?auto=compress&cs=tinysrgb&fit=crop&h=1200&w=800",
                "landscape": "https://images.pexels.com/photos/3225531/pexels-photo-3225531.jpeg?auto=compress&cs=tinysrgb&fit=crop&h=627&w=1200",
                "tiny": "https://images.pexels.com/photos/3225531/pexels-photo-3225531.jpeg?auto=compress&cs=tinysrgb&dpr=1&fit=crop&h=200&w=280"
            },
            "liked": false
        },
        {
            "id": 6353834,
            "width": 6016,
            "height": 4016,
            "url": "https://www.pexels.com/photo/faceless-person-showing-inscription-on-coffee-to-go-6353834/",
            "photographer": "Anete Lusina",
            "photographer_url": "https://www.pexels.com/@anete-lusina",
            "photographer_id": 2202476,
            "avg_color": "#CFC9C4",
            "src": {
                "original": "https://images.pexels.com/photos/6353834/pexels-photo-6353834.jpeg",
                "large2x": "https://images.pexels.com/photos/6353834/pexels-photo-6353834.jpeg?auto=compress&cs=tinysrgb&dpr=2&h=650&w=940",
                "large": "https://images.pexels.com/photos/6353834/pexels-photo-6353834.jpeg?auto=compress&cs=tinysrgb&h=650&w=940",
                "medium": "https://images.pexels.com/photos/6353834/pexels-photo-6353834.jpeg?auto=compress&cs=tinysrgb&h=350",
                "small": "https://images.pexels.com/photos/6353834/pexels-photo-6353834.jpeg?auto=compress&cs=tinysrgb&h=130",
                "portrait": "https://images.pexels.com/photos/6353834/pexels-photo-6353834.jpeg?auto=compress&cs=tinysrgb&fit=crop&h=1200&w=800",
                "landscape": "https://images.pexels.com/photos/6353834/pexels-photo-6353834.jpeg?auto=compress&cs=tinysrgb&fit=crop&h=627&w=1200",
                "tiny": "https://images.pexels.com/photos/6353834/pexels-photo-6353834.jpeg?auto=compress&cs=tinysrgb&dpr=1&fit=crop&h=200&w=280"
            },
            "liked": false
        },
        {
            "id": 2647973,
            "width": 3648,
            "height": 5472,
            "url": "https://www.pexels.com/photo/back-view-photo-of-six-girls-wearing-swimsuit-sitting-on-white-sand-2647973/",
            "photographer": "Roberto Nickson",
            "photographer_url": "https://www.pexels.com/@rpnickson",
            "photographer_id": 1268114,
            "avg_color": "#BFCFD5",
            "src": {
                "original": "https://images.pexels.com/photos/2647973/pexels-photo-2647973.jpeg",
                "large2x": "https://images.pexels.com/photos/2647973/pexels-photo-2647973.jpeg?auto=compress&cs=tinysrgb&dpr=2&h=650&w=940",
                "large": "https://images.pexels.com/photos/2647973/pexels-photo-2647973.jpeg?auto=compress&cs=tinysrgb&h=650&w=940",
                "medium": "https://images.pexels.com/photos/2647973/pexels-photo-2647973.jpeg?auto=compress&cs=tinysrgb&h=350",
                "small": "https://images.pexels.com/photos/2647973/pexels-photo-2647973.jpeg?auto=compress&cs=tinysrgb&h=130",
                "portrait": "https://images.pexels.com/photos/2647973/pexels-photo-2647973.jpeg?auto=compress&cs=tinysrgb&fit=crop&h=1200&w=800",
                "landscape": "https://images.pexels.com/photos/2647973/pexels-photo-2647973.jpeg?auto=compress&cs=tinysrgb&fit=crop&h=627&w=1200",
                "tiny": "https://images.pexels.com/photos/2647973/pexels-photo-2647973.jpeg?auto=compress&cs=tinysrgb&dpr=1&fit=crop&h=200&w=280"
            },
            "liked": false
        },
        {
            "id": 1223649,
            "width": 3489,
            "height": 4361,
            "url": "https://www.pexels.com/photo/man-holding-black-backpack-1223649/",
            "photographer": "Oliver Sjöström",
            "photographer_url": "https://www.pexels.com/@ollivves",
            "photographer_id": 333270,
            "avg_color": "#A2BEC5",
            "src": {
                "original": "https://images.pexels.com/photos/1223649/pexels-photo-1223649.jpeg",
                "large2x": "https://images.pexels.com/photos/1223649/pexels-photo-1223649.jpeg?auto=compress&cs=tinysrgb&dpr=2&h=650&w=940",
                "large": "https://images.pexels.com/photos/1223649/pexels-photo-1223649.jpeg?auto=compress&cs=tinysrgb&h=650&w=940",
                "medium": "https://images.pexels.com/photos/1223649/pexels-photo-1223649.jpeg?auto=compress&cs=tinysrgb&h=350",
                "small": "https://images.pexels.com/photos/1223649/pexels-photo-1223649.jpeg?auto=compress&cs=tinysrgb&h=130",
                "portrait": "https://images.pexels.com/photos/1223649/pexels-photo-1223649.jpeg?auto=compress&cs=tinysrgb&fit=crop&h=1200&w=800",
                "landscape": "https://images.pexels.com/photos/1223649/pexels-photo-1223649.jpeg?auto=compress&cs=tinysrgb&fit=crop&h=627&w=1200",
                "tiny": "https://images.pexels.com/photos/1223649/pexels-photo-1223649.jpeg?auto=compress&cs=tinysrgb&dpr=1&fit=crop&h=200&w=280"
            },
            "liked": false
        },
        {
            "id": 6353836,
            "width": 6016,
            "height": 4016,
            "url": "https://www.pexels.com/photo/faceless-person-showing-coffee-to-go-on-light-background-6353836/",
            "photographer": "Anete Lusina",
            "photographer_url": "https://www.pexels.com/@anete-lusina",
            "photographer_id": 2202476,
            "avg_color": "#C6BFB7",
            "src": {
                "original": "https://images.pexels.com/photos/6353836/pexels-photo-6353836.jpeg",
                "large2x": "https://images.pexels.com/photos/6353836/pexels-photo-6353836.jpeg?auto=compress&cs=tinysrgb&dpr=2&h=650&w=940",
                "large": "https://images.pexels.com/photos/6353836/pexels-photo-6353836.jpeg?auto=compress&cs=tinysrgb&h=650&w=940",
                "medium": "https://images.pexels.com/photos/6353836/pexels-photo-6353836.jpeg?auto=compress&cs=tinysrgb&h=350",
                "small": "https://images.pexels.com/photos/6353836/pexels-photo-6353836.jpeg?auto=compress&cs=tinysrgb&h=130",
                "portrait": "https://images.pexels.com/photos/6353836/pexels-photo-6353836.jpeg?auto=compress&cs=tinysrgb&fit=crop&h=1200&w=800",
                "landscape": "https://images.pexels.com/photos/6353836/pexels-photo-6353836.jpeg?auto=compress&cs=tinysrgb&fit=crop&h=627&w=1200",
                "tiny": "https://images.pexels.com/photos/6353836/pexels-photo-6353836.jpeg?auto=compress&cs=tinysrgb&dpr=1&fit=crop&h=200&w=280"
            },
            "liked": false
        },
        {
            "id": 6231906,
            "width": 3360,
            "height": 5040,
            "url": "https://www.pexels.com/photo/crop-faceless-gardener-touching-olives-on-tree-in-garden-6231906/",
            "photographer": "Gary  Barnes",
            "photographer_url": "https://www.pexels.com/@gary-barnes",
            "photographer_id": 6928068,
            "avg_color": "#605F4A",
            "src": {
                "original": "https://images.pexels.com/photos/6231906/pexels-photo-6231906.jpeg",
                "large2x": "https://images.pexels.com/photos/6231906/pexels-photo-6231906.jpeg?auto=compress&cs=tinysrgb&dpr=2&h=650&w=940",
                "large": "https://images.pexels.com/photos/6231906/pexels-photo-6231906.jpeg?auto=compress&cs=tinysrgb&h=650&w=940",
                "medium": "https://images.pexels.com/photos/6231906/pexels-photo-6231906.jpeg?auto=compress&cs=tinysrgb&h=350",
                "small": "https://images.pexels.com/photos/6231906/pexels-photo-6231906.jpeg?auto=compress&cs=tinysrgb&h=130",
                "portrait": "https://images.pexels.com/photos/6231906/pexels-photo-6231906.jpeg?auto=compress&cs=tinysrgb&fit=crop&h=1200&w=800",
                "landscape": "https://images.pexels.com/photos/6231906/pexels-photo-6231906.jpeg?auto=compress&cs=tinysrgb&fit=crop&h=627&w=1200",
                "tiny": "https://images.pexels.com/photos/6231906/pexels-photo-6231906.jpeg?auto=compress&cs=tinysrgb&dpr=1&fit=crop&h=200&w=280"
            },
            "liked": false
        },
        {
            "id": 1154638,
            "width": 4877,
            "height": 3230,
            "url": "https://www.pexels.com/photo/woman-sitting-on-armchair-under-white-patio-umbrella-1154638/",
            "photographer": "nappy",
            "photographer_url": "https://www.pexels.com/@nappy",
            "photographer_id": 330064,
            "avg_color": "#909898",
            "src": {
                "original": "https://images.pexels.com/photos/1154638/pexels-photo-1154638.jpeg",
                "large2x": "https://images.pexels.com/photos/1154638/pexels-photo-1154638.jpeg?auto=compress&cs=tinysrgb&dpr=2&h=650&w=940",
                "large": "https://images.pexels.com/photos/1154638/pexels-photo-1154638.jpeg?auto=compress&cs=tinysrgb&h=650&w=940",
                "medium": "https://images.pexels.com/photos/1154638/pexels-photo-1154638.jpeg?auto=compress&cs=tinysrgb&h=350",
                "small": "https://images.pexels.com/photos/1154638/pexels-photo-1154638.jpeg?auto=compress&cs=tinysrgb&h=130",
                "portrait": "https://images.pexels.com/photos/1154638/pexels-photo-1154638.jpeg?auto=compress&cs=tinysrgb&fit=crop&h=1200&w=800",
                "landscape": "https://images.pexels.com/photos/1154638/pexels-photo-1154638.jpeg?auto=compress&cs=tinysrgb&fit=crop&h=627&w=1200",
                "tiny": "https://images.pexels.com/photos/1154638/pexels-photo-1154638.jpeg?auto=compress&cs=tinysrgb&dpr=1&fit=crop&h=200&w=280"
            },
            "liked": false
        },
        {
            "id": 6287493,
            "width": 3191,
            "height": 4787,
            "url": "https://www.pexels.com/photo/person-adding-greens-to-dish-in-restaurant-6287493/",
            "photographer": "Klaus Nielsen",
            "photographer_url": "https://www.pexels.com/@klaus-nielsen",
            "photographer_id": 6928139,
            "avg_color": "#8F836B",
            "src": {
                "original": "https://images.pexels.com/photos/6287493/pexels-photo-6287493.jpeg",
                "large2x": "https://images.pexels.com/photos/6287493/pexels-photo-6287493.jpeg?auto=compress&cs=tinysrgb&dpr=2&h=650&w=940",
                "large": "https://images.pexels.com/photos/6287493/pexels-photo-6287493.jpeg?auto=compress&cs=tinysrgb&h=650&w=940",
                "medium": "https://images.pexels.com/photos/6287493/pexels-photo-6287493.jpeg?auto=compress&cs=tinysrgb&h=350",
                "small": "https://images.pexels.com/photos/6287493/pexels-photo-6287493.jpeg?auto=compress&cs=tinysrgb&h=130",
                "portrait": "https://images.pexels.com/photos/6287493/pexels-photo-6287493.jpeg?auto=compress&cs=tinysrgb&fit=crop&h=1200&w=800",
                "landscape": "https://images.pexels.com/photos/6287493/pexels-photo-6287493.jpeg?auto=compress&cs=tinysrgb&fit=crop&h=627&w=1200",
                "tiny": "https://images.pexels.com/photos/6287493/pexels-photo-6287493.jpeg?auto=compress&cs=tinysrgb&dpr=1&fit=crop&h=200&w=280"
            },
            "liked": false
        }
    ],
    "total_results": 8000,
    "next_page": "https://api.pexels.com/v1/search/?page=2&per_page=15&query=people"
}